Processador_tb.vcd
$date
  Wed Jun 22 18:17:41 2022
$end
$version
  GHDL v0
$end
$timescale
  1 fs
$end
$scope module standard $end
$upscope $end
$scope module std_logic_1164 $end
$upscope $end
$scope module numeric_std $end
$upscope $end
$scope module processador_tb $end
$var reg 1 ! finished $end
$var reg 1 " clk $end
$var reg 1 # rst $end
$var reg 2 $ tl_estado[1:0] $end
$var reg 8 % tl_pc[7:0] $end
$var reg 16 & tl_instrucao[15:0] $end
$var reg 16 ' tl_reg1_out[15:0] $end
$var reg 16 ( tl_reg2_out[15:0] $end
$var reg 16 ) tl_ula_out[15:0] $end
$scope module doublep $end
$var reg 1 * clk $end
$var reg 1 + rst $end
$var reg 2 , tl_estado[1:0] $end
$var reg 8 - tl_pc[7:0] $end
$var reg 16 . tl_instrucao[15:0] $end
$var reg 16 / tl_reg1_out[15:0] $end
$var reg 16 0 tl_reg2_out[15:0] $end
$var reg 16 1 tl_ula_out[15:0] $end
$var reg 2 2 estado_s[1:0] $end
$var reg 2 3 ula_op_s[1:0] $end
$var reg 1 4 pc_en_s $end
$var reg 1 5 rom_read_s $end
$var reg 1 6 reg_wr_en_s $end
$var reg 1 7 jump_en_s $end
$var reg 1 8 reg_wr_cc_s $end
$var reg 8 9 data_in_pc_s[7:0] $end
$var reg 8 : data_out_pc_s[7:0] $end
$var reg 3 ; sel_reg_wr_s[2:0] $end
$var reg 3 < sel_rega_s[2:0] $end
$var reg 3 = sel_regb_s[2:0] $end
$var reg 16 > rega_out_s[15:0] $end
$var reg 16 ? regb_out_s[15:0] $end
$var reg 16 @ ula_out_s[15:0] $end
$var reg 16 A instruction_s[15:0] $end
$var reg 16 B mux_1_out_s[15:0] $end
$var reg 1 C ula_out_logic_s $end
$var reg 1 D flag_c_out_s $end
$var reg 1 E ulasrcb_s $end
$var reg 16 F const[15:0] $end
$var reg 8 G branch_offset[7:0] $end
$var reg 1 H branch_en_s $end
$var reg 1 I wr_en_ram_s $end
$var reg 16 J dado_out_ram_s[15:0] $end
$var reg 7 K endereco_ram_s[6:0] $end
$var reg 16 L data_in_banco_s[15:0] $end
$var reg 1 M sel_ram_s $end
$scope module flag_c $end
$var reg 1 N clk $end
$var reg 1 O rst $end
$var reg 1 P wr_en $end
$var reg 1 Q data_in $end
$var reg 1 R data_out $end
$var reg 1 S data_register $end
$upscope $end
$scope module maqestado0 $end
$var reg 1 T clk $end
$var reg 1 U rst $end
$var reg 2 V estado[1:0] $end
$var reg 2 W estado_s[1:0] $end
$upscope $end
$scope module pc0 $end
$var reg 1 X clk_pc $end
$var reg 1 Y wr_en $end
$var reg 1 Z rst $end
$var reg 8 [ data_in_pc[7:0] $end
$var reg 8 \ data_out_pc[7:0] $end
$var reg 8 ] registro[7:0] $end
$upscope $end
$scope module rom0 $end
$var reg 1 ^ clk $end
$var reg 8 _ adress[7:0] $end
$var reg 16 ` data_rom[15:0] $end
$var reg 1 a rom_read $end
$upscope $end
$scope module bancoreg0 $end
$var reg 1 b clk $end
$var reg 1 c rst $end
$var reg 1 d wr_en $end
$var reg 3 e sel_reg_write[2:0] $end
$var reg 3 f sel_rega_read[2:0] $end
$var reg 3 g sel_regb_read[2:0] $end
$var reg 16 h data_in_banco[15:0] $end
$var reg 16 i data_out_rega[15:0] $end
$var reg 16 j data_out_regb[15:0] $end
$var reg 16 k reg0_out[15:0] $end
$var reg 16 l reg1_out[15:0] $end
$var reg 16 m reg2_out[15:0] $end
$var reg 16 n reg3_out[15:0] $end
$var reg 16 o reg4_out[15:0] $end
$var reg 16 p reg5_out[15:0] $end
$var reg 16 q reg6_out[15:0] $end
$var reg 16 r reg7_out[15:0] $end
$var reg 1 s reg1_wr_en $end
$var reg 1 t reg2_wr_en $end
$var reg 1 u reg3_wr_en $end
$var reg 1 v reg4_wr_en $end
$var reg 1 w reg5_wr_en $end
$var reg 1 x reg6_wr_en $end
$var reg 1 y reg7_wr_en $end
$scope module reg0 $end
$var reg 1 z clk $end
$var reg 1 { rst $end
$var reg 1 | wr_en $end
$var reg 16 } data_in[15:0] $end
$var reg 16 !" data_out[15:0] $end
$var reg 16 "" data_register[15:0] $end
$upscope $end
$scope module reg1 $end
$var reg 1 #" clk $end
$var reg 1 $" rst $end
$var reg 1 %" wr_en $end
$var reg 16 &" data_in[15:0] $end
$var reg 16 '" data_out[15:0] $end
$var reg 16 (" data_register[15:0] $end
$upscope $end
$scope module reg2 $end
$var reg 1 )" clk $end
$var reg 1 *" rst $end
$var reg 1 +" wr_en $end
$var reg 16 ," data_in[15:0] $end
$var reg 16 -" data_out[15:0] $end
$var reg 16 ." data_register[15:0] $end
$upscope $end
$scope module reg3 $end
$var reg 1 /" clk $end
$var reg 1 0" rst $end
$var reg 1 1" wr_en $end
$var reg 16 2" data_in[15:0] $end
$var reg 16 3" data_out[15:0] $end
$var reg 16 4" data_register[15:0] $end
$upscope $end
$scope module reg4 $end
$var reg 1 5" clk $end
$var reg 1 6" rst $end
$var reg 1 7" wr_en $end
$var reg 16 8" data_in[15:0] $end
$var reg 16 9" data_out[15:0] $end
$var reg 16 :" data_register[15:0] $end
$upscope $end
$scope module reg5 $end
$var reg 1 ;" clk $end
$var reg 1 <" rst $end
$var reg 1 =" wr_en $end
$var reg 16 >" data_in[15:0] $end
$var reg 16 ?" data_out[15:0] $end
$var reg 16 @" data_register[15:0] $end
$upscope $end
$scope module reg6 $end
$var reg 1 A" clk $end
$var reg 1 B" rst $end
$var reg 1 C" wr_en $end
$var reg 16 D" data_in[15:0] $end
$var reg 16 E" data_out[15:0] $end
$var reg 16 F" data_register[15:0] $end
$upscope $end
$scope module reg7 $end
$var reg 1 G" clk $end
$var reg 1 H" rst $end
$var reg 1 I" wr_en $end
$var reg 16 J" data_in[15:0] $end
$var reg 16 K" data_out[15:0] $end
$var reg 16 L" data_register[15:0] $end
$upscope $end
$upscope $end
$scope module ula0 $end
$var reg 16 M" ula_in_a[15:0] $end
$var reg 16 N" ula_in_b[15:0] $end
$var reg 16 O" ula_out[15:0] $end
$var reg 1 P" ula_flag $end
$var reg 2 Q" sel_op[1:0] $end
$var reg 16 R" ula_sub[15:0] $end
$var reg 17 S" in_a_17[16:0] $end
$var reg 17 T" in_b_17[16:0] $end
$var reg 17 U" soma_17[16:0] $end
$var reg 1 V" ula_carry $end
$upscope $end
$scope module mux2x1_1 $end
$var reg 1 W" sel $end
$var reg 16 X" data_i0[15:0] $end
$var reg 16 Y" data_i1[15:0] $end
$var reg 16 Z" data_o0[15:0] $end
$upscope $end
$scope module mux2x1_2 $end
$var reg 1 [" sel $end
$var reg 16 \" data_i0[15:0] $end
$var reg 16 ]" data_i1[15:0] $end
$var reg 16 ^" data_o0[15:0] $end
$upscope $end
$scope module uc0 $end
$var reg 1 _" clk $end
$var reg 1 `" rst $end
$var reg 16 a" instruction[15:0] $end
$var reg 8 b" data_in_pc[7:0] $end
$var reg 8 c" data_out_pc[7:0] $end
$var reg 1 d" pc_att $end
$var reg 1 e" rom_read $end
$var reg 2 f" estado[1:0] $end
$var reg 1 g" reg_wr $end
$var reg 2 h" ula_op[1:0] $end
$var reg 1 i" ulasrcb $end
$var reg 3 j" sel_rega[2:0] $end
$var reg 3 k" sel_regb[2:0] $end
$var reg 3 l" sel_reg_wr[2:0] $end
$var reg 1 m" jump_en $end
$var reg 1 n" branch_en $end
$var reg 1 o" reg_wr_cc $end
$var reg 1 p" ram_wr $end
$var reg 4 q" opcode[3:0] $end
$var reg 3 r" func[2:0] $end
$upscope $end
$scope module ram0 $end
$var reg 1 s" clk $end
$var reg 7 t" endereco[6:0] $end
$var reg 1 u" wr_en $end
$var reg 16 v" dado_in[15:0] $end
$var reg 16 w" dado_out[15:0] $end
$comment ram_content is not handled $end
$upscope $end
$upscope $end
$upscope $end
$enddefinitions $end
#0
0!
0"
1#
b00 $
b00000000 %
bUUUUUUUUUUUUUUUU &
b0000000000000000 '
b0000000000000000 (
b0000000000000000 )
0*
1+
b00 ,
b00000000 -
bUUUUUUUUUUUUUUUU .
b0000000000000000 /
b0000000000000000 0
b0000000000000000 1
b00 2
b00 3
04
15
06
07
18
b00000001 9
b00000000 :
bUUU ;
bUUU <
bUUU =
b0000000000000000 >
b0000000000000000 ?
b0000000000000000 @
bUUUUUUUUUUUUUUUU A
b0000000000000000 B
0C
0D
1E
b0000000000000000 F
bUUUUUUUU G
0H
UI
bUUUUUUUUUUUUUUUU J
b0000000 K
b0000000000000000 L
0M
0N
1O
1P
0Q
0R
0S
0T
1U
b00 V
b00 W
0X
0Y
1Z
b00000001 [
b00000000 \
b00000000 ]
0^
b00000000 _
bUUUUUUUUUUUUUUUU `
1a
0b
1c
0d
bUUU e
bUUU f
bUUU g
b0000000000000000 h
b0000000000000000 i
b0000000000000000 j
b0000000000000000 k
b0000000000000000 l
b0000000000000000 m
b0000000000000000 n
b0000000000000000 o
b0000000000000000 p
b0000000000000000 q
b0000000000000000 r
0s
0t
0u
0v
0w
0x
0y
0z
1{
0|
b0000000000000000 }
b0000000000000000 !"
b0000000000000000 ""
0#"
1$"
0%"
b0000000000000000 &"
b0000000000000000 '"
b0000000000000000 ("
0)"
1*"
0+"
b0000000000000000 ,"
b0000000000000000 -"
b0000000000000000 ."
0/"
10"
01"
b0000000000000000 2"
b0000000000000000 3"
b0000000000000000 4"
05"
16"
07"
b0000000000000000 8"
b0000000000000000 9"
b0000000000000000 :"
0;"
1<"
0="
b0000000000000000 >"
b0000000000000000 ?"
b0000000000000000 @"
0A"
1B"
0C"
b0000000000000000 D"
b0000000000000000 E"
b0000000000000000 F"
0G"
1H"
0I"
b0000000000000000 J"
b0000000000000000 K"
b0000000000000000 L"
b0000000000000000 M"
b0000000000000000 N"
b0000000000000000 O"
0P"
b00 Q"
bUUUUUUUUUUUUUUUU R"
b00000000000000000 S"
b00000000000000000 T"
b00000000000000000 U"
UV"
1W"
b0000000000000000 X"
b0000000000000000 Y"
b0000000000000000 Z"
0["
b0000000000000000 \"
bUUUUUUUUUUUUUUUU ]"
b0000000000000000 ^"
0_"
1`"
bUUUUUUUUUUUUUUUU a"
b00000001 b"
b00000000 c"
0d"
1e"
b00 f"
0g"
b00 h"
1i"
bUUU j"
bUUU k"
bUUU l"
0m"
0n"
1o"
0p"
bUUUU q"
b000 r"
0s"
b0000000 t"
Uu"
b0000000000000000 v"
bUUUUUUUUUUUUUUUU w"
#50000000
1"
b0111000000000000 &
1*
b0111000000000000 .
08
b000 ;
b000 <
b000 =
b0111000000000000 A
b00000000 G
1N
0P
1T
1X
1^
b0111000000000000 `
1b
b000 e
b000 f
b000 g
1z
1#"
1)"
1/"
15"
1;"
1A"
1G"
1_"
b0111000000000000 a"
b000 j"
b000 k"
b000 l"
0o"
b0111 q"
1s"
#100000000
0"
0*
0N
0T
0X
0^
0b
0z
0#"
0)"
0/"
05"
0;"
0A"
0G"
0_"
0s"
#150000000
1"
1*
1N
1T
1X
1^
1b
1z
1#"
1)"
1/"
15"
1;"
1A"
1G"
1_"
1s"
#200000000
0"
0#
0*
0+
0N
0O
0T
0U
0X
0Z
0^
0b
0c
0z
0{
0#"
0$"
0)"
0*"
0/"
00"
05"
06"
0;"
0<"
0A"
0B"
0G"
0H"
0_"
0`"
0s"
#250000000
1"
b01 $
1*
b01 ,
b01 2
14
05
1N
1T
b01 V
b01 W
1X
1Y
1^
0a
1b
1z
1#"
1)"
1/"
15"
1;"
1A"
1G"
1_"
1d"
0e"
b01 f"
1s"
#300000000
0"
0*
0N
0T
0X
0^
0b
0z
0#"
0)"
0/"
05"
0;"
0A"
0G"
0_"
0s"
#350000000
1"
b00 $
b00000001 %
1*
b00 ,
b00000001 -
b00 2
04
15
b00000010 9
b00000001 :
1N
1T
b00 V
b00 W
1X
0Y
b00000010 [
b00000001 \
b00000001 ]
1^
b00000001 _
1a
1b
1z
1#"
1)"
1/"
15"
1;"
1A"
1G"
1_"
b00000010 b"
b00000001 c"
0d"
1e"
b00 f"
1s"
#400000000
0"
0*
0N
0T
0X
0^
0b
0z
0#"
0)"
0/"
05"
0;"
0A"
0G"
0_"
0s"
#450000000
1"
b01 $
b1100011000000000 &
1*
b01 ,
b1100011000000000 .
b01 2
14
05
16
18
b011 ;
b000 <
b1100011000000000 A
1N
1P
1T
b01 V
b01 W
1X
1Y
1^
b1100011000000000 `
0a
1b
1d
b011 e
b000 f
1u
1z
1#"
1)"
1/"
11"
15"
1;"
1A"
1G"
1_"
b1100011000000000 a"
1d"
0e"
b01 f"
1g"
b000 j"
b011 l"
1o"
b1100 q"
1s"
#500000000
0"
0*
0N
0T
0X
0^
0b
0z
0#"
0)"
0/"
05"
0;"
0A"
0G"
0_"
0s"
#550000000
1"
b00 $
b00000010 %
1*
b00 ,
b00000010 -
b00 2
04
15
06
b00000011 9
b00000010 :
1N
1T
b00 V
b00 W
1X
0Y
b00000011 [
b00000010 \
b00000010 ]
1^
b00000010 _
1a
1b
0d
0u
1z
1#"
1)"
1/"
01"
15"
1;"
1A"
1G"
1_"
b00000011 b"
b00000010 c"
0d"
1e"
b00 f"
0g"
1s"
#600000000
0"
0*
0N
0T
0X
0^
0b
0z
0#"
0)"
0/"
05"
0;"
0A"
0G"
0_"
0s"
#650000000
1"
b01 $
b1100100000000000 &
1*
b01 ,
b1100100000000000 .
b01 2
14
05
16
b100 ;
b1100100000000000 A
1N
1T
b01 V
b01 W
1X
1Y
1^
b1100100000000000 `
0a
1b
1d
b100 e
1v
1z
1#"
1)"
1/"
15"
17"
1;"
1A"
1G"
1_"
b1100100000000000 a"
1d"
0e"
b01 f"
1g"
b100 l"
1s"
#700000000
0"
0*
0N
0T
0X
0^
0b
0z
0#"
0)"
0/"
05"
0;"
0A"
0G"
0_"
0s"
#750000000
1"
b00 $
b00000011 %
1*
b00 ,
b00000011 -
b00 2
04
15
06
b00000100 9
b00000011 :
1N
1T
b00 V
b00 W
1X
0Y
b00000100 [
b00000011 \
b00000011 ]
1^
b00000011 _
1a
1b
0d
0v
1z
1#"
1)"
1/"
15"
07"
1;"
1A"
1G"
1_"
b00000100 b"
b00000011 c"
0d"
1e"
b00 f"
0g"
1s"
#800000000
0"
0*
0N
0T
0X
0^
0b
0z
0#"
0)"
0/"
05"
0;"
0A"
0G"
0_"
0s"
#850000000
1"
b01 $
b0000100011000000 &
1*
b01 ,
b0000100011000000 .
b01 2
14
05
16
b100 <
b011 =
b0000100011000000 A
0E
b11000000 G
1N
1T
b01 V
b01 W
1X
1Y
1^
b0000100011000000 `
0a
1b
1d
b100 f
b011 g
1v
1z
1#"
1)"
1/"
15"
17"
1;"
1A"
1G"
0W"
1_"
b0000100011000000 a"
1d"
0e"
b01 f"
1g"
0i"
b100 j"
b011 k"
b0000 q"
1s"
#900000000
0"
0*
0N
0T
0X
0^
0b
0z
0#"
0)"
0/"
05"
0;"
0A"
0G"
0_"
0s"
#950000000
1"
b00 $
b00000100 %
1*
b00 ,
b00000100 -
b00 2
04
15
06
b00000101 9
b00000100 :
1N
1T
b00 V
b00 W
1X
0Y
b00000101 [
b00000100 \
b00000100 ]
1^
b00000100 _
1a
1b
0d
0v
1z
1#"
1)"
1/"
15"
07"
1;"
1A"
1G"
1_"
b00000101 b"
b00000100 c"
0d"
1e"
b00 f"
0g"
1s"
#1000000000
0"
0*
0N
0T
0X
0^
0b
0z
0#"
0)"
0/"
05"
0;"
0A"
0G"
0_"
0s"
#1050000000
1"
b01 $
b1000011000000001 &
1*
b01 ,
b1000011000000001 .
b01 2
14
05
16
b011 ;
b011 <
b000 =
b1000011000000001 A
1E
b00000001 G
1N
1T
b01 V
b01 W
1X
1Y
1^
b1000011000000001 `
0a
1b
1d
b011 e
b011 f
b000 g
1u
1z
1#"
1)"
1/"
11"
15"
1;"
1A"
1G"
1W"
1_"
b1000011000000001 a"
1d"
0e"
b01 f"
1g"
1i"
b011 j"
b000 k"
b011 l"
b1000 q"
1s"
#1100000000
0"
0*
0N
0T
0X
0^
0b
0z
0#"
0)"
0/"
05"
0;"
0A"
0G"
0_"
0s"
#1150000000
1"
b00 $
b00000101 %
1*
b00 ,
b00000101 -
b00 2
04
15
06
b00000110 9
b00000101 :
1N
1T
b00 V
b00 W
1X
0Y
b00000110 [
b00000101 \
b00000101 ]
1^
b00000101 _
1a
1b
0d
0u
1z
1#"
1)"
1/"
01"
15"
1;"
1A"
1G"
1_"
b00000110 b"
b00000101 c"
0d"
1e"
b00 f"
0g"
1s"
#1200000000
0"
0*
0N
0T
0X
0^
0b
0z
0#"
0)"
0/"
05"
0;"
0A"
0G"
0_"
0s"
#1250000000
1"
b01 $
b1011000000000000 &
1*
b01 ,
b1011000000000000 .
b01 2
b11 3
14
05
b000 ;
b000 <
b1011000000000000 A
b00000000 G
1N
1T
b01 V
b01 W
1X
1Y
1^
b1011000000000000 `
0a
1b
b000 e
b000 f
1z
1#"
1)"
1/"
15"
1;"
1A"
1G"
b11 Q"
b0000000000000000 R"
1_"
b1011000000000000 a"
1d"
0e"
b01 f"
b11 h"
b000 j"
b000 l"
b1011 q"
1s"
#1300000000
0"
0*
0N
0T
0X
0^
0b
0z
0#"
0)"
0/"
05"
0;"
0A"
0G"
0_"
0s"
#1350000000
1"
b00 $
b00000110 %
1*
b00 ,
b00000110 -
b00 2
04
15
b00000111 9
b00000110 :
1N
1T
b00 V
b00 W
1X
0Y
b00000111 [
b00000110 \
b00000110 ]
1^
b00000110 _
1a
1b
1z
1#"
1)"
1/"
15"
1;"
1A"
1G"
1_"
b00000111 b"
b00000110 c"
0d"
1e"
b00 f"
1s"
#1400000000
0"
0*
0N
0T
0X
0^
0b
0z
0#"
0)"
0/"
05"
0;"
0A"
0G"
0_"
0s"
#1450000000
1"
b01 $
b1011011000011110 &
1*
b01 ,
b1011011000011110 .
b01 2
14
05
b011 ;
b011 <
b1011011000011110 A
b00011110 G
1N
1T
b01 V
b01 W
1X
1Y
1^
b1011011000011110 `
0a
1b
b011 e
b011 f
1z
1#"
1)"
1/"
15"
1;"
1A"
1G"
1_"
b1011011000011110 a"
1d"
0e"
b01 f"
b011 j"
b011 l"
1s"
#1500000000
0"
0*
0N
0T
0X
0^
0b
0z
0#"
0)"
0/"
05"
0;"
0A"
0G"
0_"
0s"
#1550000000
1"
b00 $
b00000111 %
1*
b00 ,
b00000111 -
b00 2
04
15
b00001000 9
b00000111 :
1N
1T
b00 V
b00 W
1X
0Y
b00001000 [
b00000111 \
b00000111 ]
1^
b00000111 _
1a
1b
1z
1#"
1)"
1/"
15"
1;"
1A"
1G"
1_"
b00001000 b"
b00000111 c"
0d"
1e"
b00 f"
1s"
#1600000000
0"
0*
0N
0T
0X
0^
0b
0z
0#"
0)"
0/"
05"
0;"
0A"
0G"
0_"
0s"
#1650000000
1"
b01 $
b1101000011111100 &
1*
b01 ,
b1101000011111100 .
b01 2
b00 3
14
05
08
b000 ;
b000 <
b011 =
b1101000011111100 A
b11111100 G
1H
1N
0P
1T
b01 V
b01 W
1X
1Y
1^
b1101000011111100 `
0a
1b
b000 e
b000 f
b011 g
1z
1#"
1)"
1/"
15"
1;"
1A"
1G"
b00 Q"
1_"
b1101000011111100 a"
1d"
0e"
b01 f"
b00 h"
b000 j"
b011 k"
b000 l"
1n"
0o"
b1101 q"
1s"
#1700000000
0"
0*
0N
0T
0X
0^
0b
0z
0#"
0)"
0/"
05"
0;"
0A"
0G"
0_"
0s"
#1750000000
1"
b00 $
b00001000 %
1*
b00 ,
b00001000 -
b00 2
04
15
b00001001 9
b00001000 :
1N
1T
b00 V
b00 W
1X
0Y
b00001001 [
b00001000 \
b00001000 ]
1^
b00001000 _
1a
1b
1z
1#"
1)"
1/"
15"
1;"
1A"
1G"
1_"
b00001001 b"
b00001000 c"
0d"
1e"
b00 f"
1s"
#1800000000
0"
0*
0N
0T
0X
0^
0b
0z
0#"
0)"
0/"
05"
0;"
0A"
0G"
0_"
0s"
#1850000000
1"
b01 $
b0000101100100000 &
1*
b01 ,
b0000101100100000 .
b01 2
14
05
16
18
b101 ;
b000 <
b100 =
b0000101100100000 A
0E
b00100000 G
0H
1N
1P
1T
b01 V
b01 W
1X
1Y
1^
b0000101100100000 `
0a
1b
1d
b101 e
b000 f
b100 g
1w
1z
1#"
1)"
1/"
15"
1;"
1="
1A"
1G"
0W"
1_"
b0000101100100000 a"
1d"
0e"
b01 f"
1g"
0i"
b000 j"
b100 k"
b101 l"
0n"
1o"
b0000 q"
b100 r"
1s"
#1900000000
0"
0*
0N
0T
0X
0^
0b
0z
0#"
0)"
0/"
05"
0;"
0A"
0G"
0_"
0s"
#1950000000
1"
b00 $
b00001001 %
1*
b00 ,
b00001001 -
b00 2
04
15
06
b00001010 9
b00001001 :
1N
1T
b00 V
b00 W
1X
0Y
b00001010 [
b00001001 \
b00001001 ]
1^
b00001001 _
1a
1b
0d
0w
1z
1#"
1)"
1/"
15"
1;"
0="
1A"
1G"
1_"
b00001010 b"
b00001001 c"
0d"
1e"
b00 f"
0g"
1s"
#2000000000
0"
0*
0N
0T
0X
0^
0b
0z
0#"
0)"
0/"
05"
0;"
0A"
0G"
0_"
0s"
#2050000000
1"
b01 $
b0111000000000000 &
1*
b01 ,
b0111000000000000 .
b01 2
14
05
08
b000 ;
b000 =
b0111000000000000 A
1E
b00000000 G
1N
0P
1T
b01 V
b01 W
1X
1Y
1^
b0111000000000000 `
0a
1b
b000 e
b000 g
1z
1#"
1)"
1/"
15"
1;"
1A"
1G"
1W"
1_"
b0111000000000000 a"
1d"
0e"
b01 f"
1i"
b000 k"
b000 l"
0o"
b0111 q"
b000 r"
1s"
#2100000000
0"
0*
0N
0T
0X
0^
0b
0z
0#"
0)"
0/"
05"
0;"
0A"
0G"
0_"
0s"
#2150000000
1"
b00 $
b00001010 %
1*
b00 ,
b00001010 -
b00 2
04
15
b00001011 9
b00001010 :
1N
1T
b00 V
b00 W
1X
0Y
b00001011 [
b00001010 \
b00001010 ]
1^
b00001010 _
1a
1b
1z
1#"
1)"
1/"
15"
1;"
1A"
1G"
1_"
b00001011 b"
b00001010 c"
0d"
1e"
b00 f"
1s"
#2200000000
0"
0*
0N
0T
0X
0^
0b
0z
0#"
0)"
0/"
05"
0;"
0A"
0G"
0_"
0s"
#2250000000
1"
b01 $
1*
b01 ,
b01 2
14
05
1N
1T
b01 V
b01 W
1X
1Y
1^
0a
1b
1z
1#"
1)"
1/"
15"
1;"
1A"
1G"
1_"
1d"
0e"
b01 f"
1s"
#2300000000
0"
0*
0N
0T
0X
0^
0b
0z
0#"
0)"
0/"
05"
0;"
0A"
0G"
0_"
0s"
#2350000000
1"
b00 $
b00001011 %
1*
b00 ,
b00001011 -
b00 2
04
15
b00001100 9
b00001011 :
1N
1T
b00 V
b00 W
1X
0Y
b00001100 [
b00001011 \
b00001011 ]
1^
b00001011 _
1a
1b
1z
1#"
1)"
1/"
15"
1;"
1A"
1G"
1_"
b00001100 b"
b00001011 c"
0d"
1e"
b00 f"
1s"
#2400000000
0"
0*
0N
0T
0X
0^
0b
0z
0#"
0)"
0/"
05"
0;"
0A"
0G"
0_"
0s"
#2450000000
1"
b01 $
1*
b01 ,
b01 2
14
05
1N
1T
b01 V
b01 W
1X
1Y
1^
0a
1b
1z
1#"
1)"
1/"
15"
1;"
1A"
1G"
1_"
1d"
0e"
b01 f"
1s"
#2500000000
0"
0*
0N
0T
0X
0^
0b
0z
0#"
0)"
0/"
05"
0;"
0A"
0G"
0_"
0s"
#2550000000
1"
b00 $
b00001100 %
1*
b00 ,
b00001100 -
b00 2
04
15
b00001101 9
b00001100 :
1N
1T
b00 V
b00 W
1X
0Y
b00001101 [
b00001100 \
b00001100 ]
1^
b00001100 _
1a
1b
1z
1#"
1)"
1/"
15"
1;"
1A"
1G"
1_"
b00001101 b"
b00001100 c"
0d"
1e"
b00 f"
1s"
#2600000000
0"
0*
0N
0T
0X
0^
0b
0z
0#"
0)"
0/"
05"
0;"
0A"
0G"
0_"
0s"
#2650000000
1"
b01 $
1*
b01 ,
b01 2
14
05
1N
1T
b01 V
b01 W
1X
1Y
1^
0a
1b
1z
1#"
1)"
1/"
15"
1;"
1A"
1G"
1_"
1d"
0e"
b01 f"
1s"
#2700000000
0"
0*
0N
0T
0X
0^
0b
0z
0#"
0)"
0/"
05"
0;"
0A"
0G"
0_"
0s"
#2750000000
1"
b00 $
b00001101 %
1*
b00 ,
b00001101 -
b00 2
04
15
b00001110 9
b00001101 :
1N
1T
b00 V
b00 W
1X
0Y
b00001110 [
b00001101 \
b00001101 ]
1^
b00001101 _
1a
1b
1z
1#"
1)"
1/"
15"
1;"
1A"
1G"
1_"
b00001110 b"
b00001101 c"
0d"
1e"
b00 f"
1s"
#2800000000
0"
0*
0N
0T
0X
0^
0b
0z
0#"
0)"
0/"
05"
0;"
0A"
0G"
0_"
0s"
#2850000000
1"
b01 $
1*
b01 ,
b01 2
14
05
1N
1T
b01 V
b01 W
1X
1Y
1^
0a
1b
1z
1#"
1)"
1/"
15"
1;"
1A"
1G"
1_"
1d"
0e"
b01 f"
1s"
#2900000000
0"
0*
0N
0T
0X
0^
0b
0z
0#"
0)"
0/"
05"
0;"
0A"
0G"
0_"
0s"
#2950000000
1"
b00 $
b00001110 %
1*
b00 ,
b00001110 -
b00 2
04
15
b00001111 9
b00001110 :
1N
1T
b00 V
b00 W
1X
0Y
b00001111 [
b00001110 \
b00001110 ]
1^
b00001110 _
1a
1b
1z
1#"
1)"
1/"
15"
1;"
1A"
1G"
1_"
b00001111 b"
b00001110 c"
0d"
1e"
b00 f"
1s"
#3000000000
0"
0*
0N
0T
0X
0^
0b
0z
0#"
0)"
0/"
05"
0;"
0A"
0G"
0_"
0s"
#3050000000
1"
b01 $
1*
b01 ,
b01 2
14
05
1N
1T
b01 V
b01 W
1X
1Y
1^
0a
1b
1z
1#"
1)"
1/"
15"
1;"
1A"
1G"
1_"
1d"
0e"
b01 f"
1s"
#3100000000
0"
0*
0N
0T
0X
0^
0b
0z
0#"
0)"
0/"
05"
0;"
0A"
0G"
0_"
0s"
#3150000000
1"
b00 $
b00001111 %
1*
b00 ,
b00001111 -
b00 2
04
15
b00010000 9
b00001111 :
1N
1T
b00 V
b00 W
1X
0Y
b00010000 [
b00001111 \
b00001111 ]
1^
b00001111 _
1a
1b
1z
1#"
1)"
1/"
15"
1;"
1A"
1G"
1_"
b00010000 b"
b00001111 c"
0d"
1e"
b00 f"
1s"
#3200000000
0"
0*
0N
0T
0X
0^
0b
0z
0#"
0)"
0/"
05"
0;"
0A"
0G"
0_"
0s"
#3250000000
1"
b01 $
1*
b01 ,
b01 2
14
05
1N
1T
b01 V
b01 W
1X
1Y
1^
0a
1b
1z
1#"
1)"
1/"
15"
1;"
1A"
1G"
1_"
1d"
0e"
b01 f"
1s"
#3300000000
0"
0*
0N
0T
0X
0^
0b
0z
0#"
0)"
0/"
05"
0;"
0A"
0G"
0_"
0s"
#3350000000
1"
b00 $
b00010000 %
1*
b00 ,
b00010000 -
b00 2
04
15
b00010001 9
b00010000 :
1N
1T
b00 V
b00 W
1X
0Y
b00010001 [
b00010000 \
b00010000 ]
1^
b00010000 _
1a
1b
1z
1#"
1)"
1/"
15"
1;"
1A"
1G"
1_"
b00010001 b"
b00010000 c"
0d"
1e"
b00 f"
1s"
#3400000000
0"
0*
0N
0T
0X
0^
0b
0z
0#"
0)"
0/"
05"
0;"
0A"
0G"
0_"
0s"
#3450000000
1"
b01 $
1*
b01 ,
b01 2
14
05
1N
1T
b01 V
b01 W
1X
1Y
1^
0a
1b
1z
1#"
1)"
1/"
15"
1;"
1A"
1G"
1_"
1d"
0e"
b01 f"
1s"
#3500000000
0"
0*
0N
0T
0X
0^
0b
0z
0#"
0)"
0/"
05"
0;"
0A"
0G"
0_"
0s"
#3550000000
1"
b00 $
b00010001 %
1*
b00 ,
b00010001 -
b00 2
04
15
b00010010 9
b00010001 :
1N
1T
b00 V
b00 W
1X
0Y
b00010010 [
b00010001 \
b00010001 ]
1^
b00010001 _
1a
1b
1z
1#"
1)"
1/"
15"
1;"
1A"
1G"
1_"
b00010010 b"
b00010001 c"
0d"
1e"
b00 f"
1s"
#3600000000
0"
0*
0N
0T
0X
0^
0b
0z
0#"
0)"
0/"
05"
0;"
0A"
0G"
0_"
0s"
#3650000000
1"
b01 $
1*
b01 ,
b01 2
14
05
1N
1T
b01 V
b01 W
1X
1Y
1^
0a
1b
1z
1#"
1)"
1/"
15"
1;"
1A"
1G"
1_"
1d"
0e"
b01 f"
1s"
#3700000000
0"
0*
0N
0T
0X
0^
0b
0z
0#"
0)"
0/"
05"
0;"
0A"
0G"
0_"
0s"
#3750000000
1"
b00 $
b00010010 %
1*
b00 ,
b00010010 -
b00 2
04
15
b00010011 9
b00010010 :
1N
1T
b00 V
b00 W
1X
0Y
b00010011 [
b00010010 \
b00010010 ]
1^
b00010010 _
1a
1b
1z
1#"
1)"
1/"
15"
1;"
1A"
1G"
1_"
b00010011 b"
b00010010 c"
0d"
1e"
b00 f"
1s"
#3800000000
0"
0*
0N
0T
0X
0^
0b
0z
0#"
0)"
0/"
05"
0;"
0A"
0G"
0_"
0s"
#3850000000
1"
b01 $
1*
b01 ,
b01 2
14
05
1N
1T
b01 V
b01 W
1X
1Y
1^
0a
1b
1z
1#"
1)"
1/"
15"
1;"
1A"
1G"
1_"
1d"
0e"
b01 f"
1s"
#3900000000
0"
0*
0N
0T
0X
0^
0b
0z
0#"
0)"
0/"
05"
0;"
0A"
0G"
0_"
0s"
